<?xml version="1.0" encoding="UTF-8" standalone="no"?>
<!-- Created with Inkscape (http://www.inkscape.org/) -->

<svg
   xmlns:dc="http://purl.org/dc/elements/1.1/"
   xmlns:cc="http://creativecommons.org/ns#"
   xmlns:rdf="http://www.w3.org/1999/02/22-rdf-syntax-ns#"
   xmlns:svg="http://www.w3.org/2000/svg"
   xmlns="http://www.w3.org/2000/svg"
   xmlns:xlink="http://www.w3.org/1999/xlink"
   xmlns:sodipodi="http://sodipodi.sourceforge.net/DTD/sodipodi-0.dtd"
   xmlns:inkscape="http://www.inkscape.org/namespaces/inkscape"
   id="svg2"
   version="1.1"
   inkscape:version="0.48.1 r9760"
   width="480"
   height="272"
   sodipodi:docname="hud.svg">
  <metadata
     id="metadata8">
    <rdf:RDF>
      <cc:Work
         rdf:about="">
        <dc:format>image/svg+xml</dc:format>
        <dc:type
           rdf:resource="http://purl.org/dc/dcmitype/StillImage" />
        <dc:title />
      </cc:Work>
    </rdf:RDF>
  </metadata>
  <defs
     id="defs6">
    <linearGradient
       id="linearGradient4060">
      <stop
         id="stop4062"
         offset="0"
         style="stop-color:#b3aa1b;stop-opacity:1" />
      <stop
         style="stop-color:#7910ca;stop-opacity:1"
         offset="0.08078024"
         id="stop3830" />
      <stop
         style="stop-color:#be8744;stop-opacity:1"
         offset="0.19516586"
         id="stop3828" />
      <stop
         style="stop-color:#c8e610;stop-opacity:1"
         offset="0.46394211"
         id="stop4070" />
      <stop
         style="stop-color:#be8744;stop-opacity:1"
         offset="0.70907247"
         id="stop4068" />
      <stop
         style="stop-color:#7900ad;stop-opacity:1"
         offset="0.81913817"
         id="stop4066" />
      <stop
         id="stop4064"
         offset="1"
         style="stop-color:#000000;stop-opacity:0;" />
    </linearGradient>
    <linearGradient
       id="linearGradient4014">
      <stop
         id="stop4016"
         offset="0"
         style="stop-color:#080d78;stop-opacity:1" />
      <stop
         style="stop-color:#081333;stop-opacity:1"
         offset="0.09103025"
         id="stop4024" />
      <stop
         style="stop-color:#08164a;stop-opacity:1"
         offset="0.25"
         id="stop4022" />
      <stop
         style="stop-color:#08146f;stop-opacity:1"
         offset="0.39749467"
         id="stop4020" />
      <stop
         id="stop4018"
         offset="1"
         style="stop-color:#084400;stop-opacity:0;" />
    </linearGradient>
    <linearGradient
       id="linearGradient3972">
      <stop
         style="stop-color:#0b4200;stop-opacity:1"
         offset="0"
         id="stop3974" />
      <stop
         id="stop3986"
         offset="0.15923423"
         style="stop-color:#094900;stop-opacity:1" />
      <stop
         id="stop3984"
         offset="0.353708"
         style="stop-color:#084400;stop-opacity:1" />
      <stop
         id="stop3982"
         offset="0.59162897"
         style="stop-color:#058100;stop-opacity:0.74901961;" />
      <stop
         id="stop3980"
         offset="0.90009362"
         style="stop-color:#005600;stop-opacity:0.49803922;" />
      <stop
         style="stop-color:#000000;stop-opacity:0;"
         offset="1"
         id="stop3976" />
    </linearGradient>
    <linearGradient
       id="linearGradient3940">
      <stop
         id="stop3942"
         offset="0"
         style="stop-color:#dac4a2;stop-opacity:1" />
      <stop
         style="stop-color:#d7d340;stop-opacity:1"
         offset="0.08314955"
         id="stop3944" />
      <stop
         style="stop-color:#8b6000;stop-opacity:1"
         offset="0.51832038"
         id="stop3946" />
      <stop
         style="stop-color:#8f5300;stop-opacity:1"
         offset="0.61907709"
         id="stop3948" />
      <stop
         id="stop3950"
         offset="1"
         style="stop-color:#000000;stop-opacity:1" />
    </linearGradient>
    <linearGradient
       id="linearGradient3900">
      <stop
         style="stop-color:#00048a;stop-opacity:1"
         offset="0"
         id="stop3902" />
      <stop
         id="stop3904"
         offset="0.00000015"
         style="stop-color:#0000a6;stop-opacity:0.59259259" />
      <stop
         id="stop3906"
         offset="0.49776176"
         style="stop-color:#000073;stop-opacity:1" />
      <stop
         id="stop3908"
         offset="0.85866433"
         style="stop-color:#000000;stop-opacity:1" />
      <stop
         style="stop-color:#000000;stop-opacity:1"
         offset="1"
         id="stop3910" />
    </linearGradient>
    <linearGradient
       id="linearGradient3783">
      <stop
         id="stop3785"
         offset="0"
         style="stop-color:#e4d35f;stop-opacity:1;" />
      <stop
         style="stop-color:#d5c559;stop-opacity:0.9372549;"
         offset="0.25524011"
         id="stop3795" />
      <stop
         style="stop-color:#c7b853;stop-opacity:0.8745098;"
         offset="0.54974097"
         id="stop3793" />
      <stop
         style="stop-color:#ab9e47;stop-opacity:0.74901961;"
         offset="0.66677672"
         id="stop3791" />
      <stop
         style="stop-color:#72692f;stop-opacity:0.49803922;"
         offset="0.78764862"
         id="stop3789" />
      <stop
         id="stop3787"
         offset="1"
         style="stop-color:#000000;stop-opacity:0;" />
    </linearGradient>
    <radialGradient
       inkscape:collect="always"
       xlink:href="#linearGradient3900"
       id="radialGradient3775"
       cx="39.969559"
       cy="243.97707"
       fx="39.969559"
       fy="243.97707"
       r="17.109615"
       gradientTransform="matrix(3.0881111,-2.3050536,1.9430067,2.7047829,-557.50997,-323.79594)"
       gradientUnits="userSpaceOnUse" />
    <linearGradient
       id="linearGradient5775">
      <stop
         id="stop5777"
         offset="0"
         style="stop-color:#dac4a2;stop-opacity:1" />
      <stop
         style="stop-color:#d7d340;stop-opacity:1"
         offset="0.2167514"
         id="stop5779" />
      <stop
         style="stop-color:#8b6000;stop-opacity:1"
         offset="0.74948817"
         id="stop5781" />
      <stop
         style="stop-color:#8f5300;stop-opacity:1"
         offset="1"
         id="stop5783" />
      <stop
         id="stop5785"
         offset="1"
         style="stop-color:#000000;stop-opacity:1" />
    </linearGradient>
    <linearGradient
       id="linearGradient5789">
      <stop
         id="stop5791"
         offset="0"
         style="stop-color:#dac4a2;stop-opacity:1" />
      <stop
         style="stop-color:#d7d340;stop-opacity:1"
         offset="0.32117492"
         id="stop5793" />
      <stop
         style="stop-color:#8b6000;stop-opacity:1"
         offset="1"
         id="stop5795" />
      <stop
         style="stop-color:#8f5300;stop-opacity:1"
         offset="1"
         id="stop5797" />
      <stop
         id="stop5799"
         offset="1"
         style="stop-color:#000000;stop-opacity:1" />
    </linearGradient>
    <linearGradient
       y2="479.78601"
       x2="244.78201"
       y1="414.32785"
       x1="197.74268"
       gradientUnits="userSpaceOnUse"
       id="linearGradient3151"
       xlink:href="#linearGradient3813-7-2-2"
       inkscape:collect="always" />
    <linearGradient
       id="linearGradient3813-7-2-2">
      <stop
         id="stop3815-9-6-5"
         offset="0"
         style="stop-color:#00048a;stop-opacity:1" />
      <stop
         style="stop-color:#0000a6;stop-opacity:0.59259259"
         offset="0.18315989"
         id="stop3823-1-2-5" />
      <stop
         style="stop-color:#000073;stop-opacity:1"
         offset="0.50531948"
         id="stop3821-5-4-1" />
      <stop
         style="stop-color:#000000;stop-opacity:1"
         offset="0.85866433"
         id="stop3819-5-0-6" />
      <stop
         id="stop3817-72-0-1"
         offset="1"
         style="stop-color:#000000;stop-opacity:1" />
    </linearGradient>
    <linearGradient
       y2="479.78601"
       x2="244.78201"
       y1="414.32785"
       x1="197.74268"
       gradientUnits="userSpaceOnUse"
       id="linearGradient3153"
       xlink:href="#linearGradient3791-81-5-1"
       inkscape:collect="always" />
    <linearGradient
       id="linearGradient3791-81-5-1">
      <stop
         style="stop-color:#dac4a2;stop-opacity:1"
         offset="0"
         id="stop3793-1-88-8" />
      <stop
         id="stop3803-5-4-3"
         offset="0.08314955"
         style="stop-color:#d7d340;stop-opacity:1" />
      <stop
         id="stop3801-5-5-0"
         offset="0.34274197"
         style="stop-color:#8b6000;stop-opacity:1" />
      <stop
         id="stop3799-8-2-3"
         offset="0.71951431"
         style="stop-color:#8f5300;stop-opacity:1" />
      <stop
         style="stop-color:#000000;stop-opacity:1"
         offset="1"
         id="stop3795-20-7-7" />
    </linearGradient>
    <radialGradient
       inkscape:collect="always"
       xlink:href="#linearGradient3940"
       id="radialGradient3938"
       gradientUnits="userSpaceOnUse"
       gradientTransform="matrix(0.71040362,-0.67568302,0.65795928,0.69176911,-52.150596,97.242832)"
       cx="89.864532"
       cy="118.81441"
       fx="89.864532"
       fy="118.81441"
       r="87.206612" />
    <linearGradient
       inkscape:collect="always"
       xlink:href="#linearGradient3972"
       id="linearGradient3978"
       x1="512.4975"
       y1="232.72884"
       x2="34.894531"
       y2="232.72884"
       gradientUnits="userSpaceOnUse"
       gradientTransform="translate(58.506034,-104.99029)" />
    <linearGradient
       inkscape:collect="always"
       xlink:href="#linearGradient4014"
       id="linearGradient4012"
       x1="460.93811"
       y1="223.1114"
       x2="-7.3159747"
       y2="222.30995"
       gradientUnits="userSpaceOnUse"
       gradientTransform="translate(20.036313,-67.322012)" />
    <linearGradient
       inkscape:collect="always"
       xlink:href="#linearGradient4060"
       id="linearGradient4058"
       x1="310.60062"
       y1="-13.076511"
       x2="310.30405"
       y2="338.62732"
       gradientUnits="userSpaceOnUse"
       gradientTransform="translate(-282.91274,-26.447933)" />
  </defs>
  <sodipodi:namedview
     pagecolor="#ffffff"
     bordercolor="#666666"
     borderopacity="1"
     objecttolerance="10"
     gridtolerance="10"
     guidetolerance="10"
     inkscape:pageopacity="0"
     inkscape:pageshadow="2"
     inkscape:window-width="1366"
     inkscape:window-height="711"
     id="namedview4"
     showgrid="false"
     inkscape:zoom="0.64945561"
     inkscape:cx="98.221111"
     inkscape:cy="155.36827"
     inkscape:window-x="0"
     inkscape:window-y="26"
     inkscape:window-maximized="1"
     inkscape:current-layer="svg2" />
  <path
     style="fill:url(#linearGradient4012);fill-opacity:1;stroke:none"
     d="m 151.0738,145.57087 266.08224,0.40073 18.83413,11.62106 -18.4334,14.02542 -268.4866,0.80145 14.42615,-15.2276 z"
     id="path3952-5"
     inkscape:connector-curvature="0"
     inkscape:export-filename="/home/boss/git/magicBar.png"
     inkscape:export-xdpi="90"
     inkscape:export-ydpi="90" />
  <path
     style="fill:url(#linearGradient3978);fill-opacity:1;stroke:none"
     d="m 173.49972,120.99558 336.75907,-1.20218 -24.53917,23.90481 -330.77282,0 z"
     id="rect3939-1"
     inkscape:connector-curvature="0"
     sodipodi:nodetypes="ccccc"
     inkscape:export-filename="/home/boss/git/lifeBar.png"
     inkscape:export-xdpi="90"
     inkscape:export-ydpi="90" />
  <path
     style="fill:#5e6060;fill-opacity:1;stroke:#000000;stroke-width:3;stroke-linecap:butt;stroke-linejoin:miter;stroke-opacity:1;stroke-miterlimit:4;stroke-dasharray:none"
     d="m 153.01422,145.07329 11.21608,12.46844 -12.53563,15.23919 -8.57702,0 -11.87584,-23.55147 2.63909,-4.15616 z"
     id="path3767"
     inkscape:connector-curvature="0"
     inkscape:export-filename="/home/boss/git/avatar.png"
     inkscape:export-xdpi="90"
     inkscape:export-ydpi="90" />
  <path
     style="fill:url(#linearGradient4058);fill-opacity:1;stroke:none"
     d="m 12.452101,38.391392 14.47138,-16.151871 13.52028,16.151871 0,157.521218 -13.52028,18.09009 -14.47138,-18.09009 z"
     id="rect3918-1"
     inkscape:connector-curvature="0"
     sodipodi:nodetypes="ccccccc"
     inkscape:export-filename="/home/boss/git/creationBar.png"
     inkscape:export-xdpi="90"
     inkscape:export-ydpi="90" />
  <path
     style="fill:#5e6060;fill-opacity:1;stroke:#000000;stroke-width:3;stroke-linecap:butt;stroke-linejoin:miter;stroke-opacity:1;stroke-miterlimit:4;stroke-dasharray:none"
     d="m 134.97736,144.59458 19.79309,0 17.15403,-21.32047 -27.71033,9.04504 z"
     id="path3797"
     inkscape:connector-curvature="0"
     sodipodi:nodetypes="ccccc"
     inkscape:export-filename="/home/boss/git/avatar.png"
     inkscape:export-xdpi="90"
     inkscape:export-ydpi="90" />
  <path
     style="fill:none;stroke:#000000;stroke-width:3;stroke-linecap:round;stroke-linejoin:bevel;stroke-miterlimit:4;stroke-opacity:1;stroke-dasharray:none"
     d="m 173.41119,121.89197 336.75907,-1.20218 -24.53917,23.90481 -330.77282,0 z"
     id="rect3939"
     inkscape:connector-curvature="0"
     sodipodi:nodetypes="ccccc"
     inkscape:export-filename="/home/boss/git/avatar.png"
     inkscape:export-xdpi="90"
     inkscape:export-ydpi="90" />
  <path
     style="fill:none;stroke:#000000;stroke-width:3;stroke-linecap:butt;stroke-linejoin:miter;stroke-miterlimit:4;stroke-opacity:1;stroke-dasharray:none"
     d="m 152.6767,145.77123 266.08224,0.40073 18.83413,11.62106 -18.4334,14.02542 -268.4866,0.80145 14.42615,-15.2276 z"
     id="path3952"
     inkscape:connector-curvature="0"
     inkscape:export-filename="/home/boss/git/avatar.png"
     inkscape:export-xdpi="90"
     inkscape:export-ydpi="90" />
  <path
     style="fill:none;stroke:#000000;stroke-width:3;stroke-linecap:round;stroke-linejoin:bevel;stroke-miterlimit:4;stroke-opacity:1;stroke-dasharray:none"
     d="m 13.623307,38.886519 14.471378,-16.151871 13.52028,16.151871 0,157.521231 -13.52028,18.09009 -14.471378,-18.09009 z"
     id="rect3918"
     inkscape:connector-curvature="0"
     sodipodi:nodetypes="ccccccc"
     inkscape:export-filename="/home/boss/git/avatar.png"
     inkscape:export-xdpi="90"
     inkscape:export-ydpi="90" />
  <path
     style="fill:url(#radialGradient3938);fill-opacity:1;stroke:#000000;stroke-width:2;stroke-linecap:butt;stroke-linejoin:miter;stroke-miterlimit:4;stroke-opacity:1;stroke-dasharray:none"
     d="m 42.172902,174.14668 18.566604,-12.21003 18.380513,5.74927 9.89653,31.01159 13.195411,-29.07336 17.81377,-7.10682 23.09192,10.66023 -11.87584,-24.22781 11.87584,-16.15187 33.64828,-11.62933 -35.62757,-17.44404 -7.91723,-16.15188 9.89652,-20.67439 -21.1126,6.460744 L 102.21196,63.021791 89.769359,29.916603 79.217304,61.71336 57.157279,73.203609 37.554533,64.960004 43.184759,85.168272 34.91544,108.89311 4.5660393,118.58423 34.255666,130.21357 43.350771,150.6672 z"
     id="path2991"
     inkscape:connector-curvature="0"
     sodipodi:nodetypes="ccccccccccccccccccccccccc"
     inkscape:export-filename="/home/boss/git/avatar.png"
     inkscape:export-xdpi="90"
     inkscape:export-ydpi="90" />
  <path
     sodipodi:type="arc"
     style="fill:url(#radialGradient3775);fill-opacity:1;stroke:#000000;stroke-width:0.88668524999999998;stroke-linecap:round;stroke-linejoin:bevel;stroke-miterlimit:4;stroke-opacity:1;stroke-dasharray:none"
     id="path2993"
     sodipodi:cx="39.969559"
     sodipodi:cy="243.97707"
     sodipodi:rx="16.666273"
     sodipodi:ry="16.518784"
     d="m 56.635832,243.97707 a 16.666273,16.518784 0 1 1 -33.332546,0 16.666273,16.518784 0 1 1 33.332546,0 z"
     transform="matrix(2.5202268,0,0,2.4723874,-11.624683,-486.05186)"
     inkscape:export-filename="/home/boss/git/avatar.png"
     inkscape:export-xdpi="90"
     inkscape:export-ydpi="90" />
</svg>
