<?xml version="1.0" encoding="UTF-8" standalone="no"?>
<!-- Created with Inkscape (http://www.inkscape.org/) -->

<svg
   xmlns:dc="http://purl.org/dc/elements/1.1/"
   xmlns:cc="http://creativecommons.org/ns#"
   xmlns:rdf="http://www.w3.org/1999/02/22-rdf-syntax-ns#"
   xmlns:svg="http://www.w3.org/2000/svg"
   xmlns="http://www.w3.org/2000/svg"
   xmlns:xlink="http://www.w3.org/1999/xlink"
   xmlns:sodipodi="http://sodipodi.sourceforge.net/DTD/sodipodi-0.dtd"
   xmlns:inkscape="http://www.inkscape.org/namespaces/inkscape"
   id="svg2"
   version="1.1"
   inkscape:version="0.48.1 r9760"
   width="301"
   height="400"
   sodipodi:docname="slayer.svg"
   inkscape:export-filename="/home/boss/git/slayerButtonDown.png"
   inkscape:export-xdpi="89.800003"
   inkscape:export-ydpi="89.800003">
  <metadata
     id="metadata8">
    <rdf:RDF>
      <cc:Work
         rdf:about="">
        <dc:format>image/svg+xml</dc:format>
        <dc:type
           rdf:resource="http://purl.org/dc/dcmitype/StillImage" />
        <dc:title></dc:title>
      </cc:Work>
    </rdf:RDF>
  </metadata>
  <defs
     id="defs6">
    <linearGradient
       id="linearGradient3870">
      <stop
         style="stop-color:#00048a;stop-opacity:1"
         offset="0"
         id="stop3872" />
      <stop
         id="stop3874"
         offset="0.18315989"
         style="stop-color:#0000a6;stop-opacity:0.59259259" />
      <stop
         id="stop3876"
         offset="0.50531948"
         style="stop-color:#000073;stop-opacity:1" />
      <stop
         id="stop3878"
         offset="0.79400629"
         style="stop-color:#000000;stop-opacity:1" />
      <stop
         style="stop-color:#000000;stop-opacity:1"
         offset="1"
         id="stop3880" />
    </linearGradient>
    <linearGradient
       id="linearGradient3850">
      <stop
         id="stop3852"
         offset="0"
         style="stop-color:#dac4a2;stop-opacity:1" />
      <stop
         style="stop-color:#d7d340;stop-opacity:1"
         offset="0.22977324"
         id="stop3854" />
      <stop
         style="stop-color:#8b6000;stop-opacity:1"
         offset="0.48249704"
         id="stop3856" />
      <stop
         style="stop-color:#8f5300;stop-opacity:1"
         offset="0.66046846"
         id="stop3858" />
      <stop
         id="stop3860"
         offset="1"
         style="stop-color:#000000;stop-opacity:1" />
    </linearGradient>
    <linearGradient
       inkscape:collect="always"
       xlink:href="#linearGradient5447"
       id="linearGradient5445"
       x1="136.99225"
       y1="118.93986"
       x2="197.1978"
       y2="221.04318"
       gradientUnits="userSpaceOnUse" />
    <linearGradient
       id="linearGradient5447">
      <stop
         id="stop5449"
         offset="0"
         style="stop-color:#dac4a2;stop-opacity:1" />
      <stop
         style="stop-color:#d7d340;stop-opacity:1"
         offset="0.16607259"
         id="stop5451" />
      <stop
         style="stop-color:#8b6000;stop-opacity:1"
         offset="0.44290295"
         id="stop5453" />
      <stop
         style="stop-color:#8f5300;stop-opacity:1"
         offset="0.64122403"
         id="stop5455" />
      <stop
         id="stop5457"
         offset="1"
         style="stop-color:#ffffff;stop-opacity:1" />
    </linearGradient>
    <linearGradient
       y2="479.78601"
       x2="244.78201"
       y1="414.32785"
       x1="197.74268"
       gradientUnits="userSpaceOnUse"
       id="linearGradient4876"
       xlink:href="#linearGradient3813-7-7"
       inkscape:collect="always" />
    <linearGradient
       id="linearGradient3813-7-7">
      <stop
         id="stop3815-9-4"
         offset="0"
         style="stop-color:#00048a;stop-opacity:1" />
      <stop
         style="stop-color:#0000a6;stop-opacity:0.59259259"
         offset="0.18315989"
         id="stop3823-1-3" />
      <stop
         style="stop-color:#000073;stop-opacity:1"
         offset="0.50531948"
         id="stop3821-5-0" />
      <stop
         style="stop-color:#000000;stop-opacity:1"
         offset="0.85866433"
         id="stop3819-5-92" />
      <stop
         id="stop3817-72-4"
         offset="1"
         style="stop-color:#000000;stop-opacity:1" />
    </linearGradient>
    <linearGradient
       y2="479.78601"
       x2="244.78201"
       y1="414.32785"
       x1="197.74268"
       gradientUnits="userSpaceOnUse"
       id="linearGradient4878"
       xlink:href="#linearGradient3791-81-7"
       inkscape:collect="always" />
    <linearGradient
       id="linearGradient3791-81-7">
      <stop
         style="stop-color:#dac4a2;stop-opacity:1"
         offset="0"
         id="stop3793-1-9" />
      <stop
         id="stop3803-5-6"
         offset="0.08314955"
         style="stop-color:#d7d340;stop-opacity:1" />
      <stop
         id="stop3801-5-3"
         offset="0.34274197"
         style="stop-color:#8b6000;stop-opacity:1" />
      <stop
         id="stop3799-8-8"
         offset="0.71951431"
         style="stop-color:#8f5300;stop-opacity:1" />
      <stop
         style="stop-color:#000000;stop-opacity:1"
         offset="1"
         id="stop3795-20-8" />
    </linearGradient>
    <linearGradient
       y2="479.78601"
       x2="244.78201"
       y1="414.32785"
       x1="197.74268"
       gradientUnits="userSpaceOnUse"
       id="linearGradient4356"
       xlink:href="#linearGradient3813-7-7"
       inkscape:collect="always" />
    <linearGradient
       y2="479.78601"
       x2="244.78201"
       y1="414.32785"
       x1="197.74268"
       gradientUnits="userSpaceOnUse"
       id="linearGradient4358"
       xlink:href="#linearGradient3791-81-7"
       inkscape:collect="always" />
    <linearGradient
       inkscape:collect="always"
       xlink:href="#linearGradient3850"
       id="linearGradient3848"
       x1="151.95418"
       y1="92.266983"
       x2="152.414"
       y2="355.38864"
       gradientUnits="userSpaceOnUse" />
    <linearGradient
       inkscape:collect="always"
       xlink:href="#linearGradient3870"
       id="linearGradient3868"
       x1="153.22443"
       y1="79.338234"
       x2="151.0988"
       y2="360.64542"
       gradientUnits="userSpaceOnUse" />
    <linearGradient
       id="linearGradient4139-2-89-2">
      <stop
         id="stop4141-5-6-3"
         offset="0"
         style="stop-color:#dac4a2;stop-opacity:1" />
      <stop
         style="stop-color:#d7d340;stop-opacity:1"
         offset="0.08109644"
         id="stop4143-0-1-9" />
      <stop
         style="stop-color:#8b6000;stop-opacity:1"
         offset="0.18144664"
         id="stop4145-3-5-7" />
      <stop
         style="stop-color:#8f5300;stop-opacity:1"
         offset="0.32942024"
         id="stop4147-3-9-6" />
      <stop
         id="stop4149-0-3-7"
         offset="1"
         style="stop-color:#ffffff;stop-opacity:1" />
    </linearGradient>
    <linearGradient
       id="linearGradient4127-3-8-5">
      <stop
         id="stop4129-7-2-6"
         offset="0"
         style="stop-color:#dac4a2;stop-opacity:1" />
      <stop
         style="stop-color:#d7d340;stop-opacity:1"
         offset="0.06794253"
         id="stop4131-1-6-0" />
      <stop
         style="stop-color:#8b6000;stop-opacity:1"
         offset="0.16901194"
         id="stop4133-3-9-1" />
      <stop
         style="stop-color:#8f5300;stop-opacity:1"
         offset="0.58954036"
         id="stop4135-3-88-9" />
      <stop
         id="stop4137-4-9-4"
         offset="1"
         style="stop-color:#ffffff;stop-opacity:1" />
    </linearGradient>
    <linearGradient
       y2="627.97339"
       x2="478.58578"
       y1="544.66504"
       x1="372.34573"
       gradientTransform="matrix(-0.30157612,-0.24844017,-0.22946966,0.26451853,567.30497,632.97563)"
       gradientUnits="userSpaceOnUse"
       id="linearGradient4269"
       xlink:href="#linearGradient4151-9-06-0"
       inkscape:collect="always" />
    <linearGradient
       id="linearGradient4151-9-06-0">
      <stop
         style="stop-color:#ffffff;stop-opacity:1"
         offset="0"
         id="stop4153-0-8-5" />
      <stop
         id="stop4163-0-3-4"
         offset="0.27567106"
         style="stop-color:#000000;stop-opacity:0.8745098;" />
      <stop
         id="stop4161-9-1-3"
         offset="0.43787378"
         style="stop-color:#ffffff;stop-opacity:1" />
      <stop
         id="stop4159-5-8-6"
         offset="0.53069574"
         style="stop-color:#000000;stop-opacity:0.49803922;" />
      <stop
         style="stop-color:#000000;stop-opacity:0;"
         offset="1"
         id="stop4155-2-5-9" />
    </linearGradient>
    <linearGradient
       inkscape:collect="always"
       xlink:href="#linearGradient4127-3-8-5-7"
       id="linearGradient4125-2-3-1-3"
       x1="322.32452"
       y1="621.33813"
       x2="130.00607"
       y2="801.20844"
       gradientUnits="userSpaceOnUse"
       gradientTransform="matrix(-0.17589739,0.69876745,-0.61749142,-0.14486722,563.02351,19.670829)" />
    <linearGradient
       id="linearGradient4127-3-8-5-7">
      <stop
         id="stop4129-7-2-6-0"
         offset="0"
         style="stop-color:#dac4a2;stop-opacity:1" />
      <stop
         style="stop-color:#d7d340;stop-opacity:1"
         offset="0.06794253"
         id="stop4131-1-6-0-0" />
      <stop
         style="stop-color:#8b6000;stop-opacity:1"
         offset="0.16901194"
         id="stop4133-3-9-1-4" />
      <stop
         style="stop-color:#8f5300;stop-opacity:1"
         offset="0.58954036"
         id="stop4135-3-88-9-1" />
      <stop
         id="stop4137-4-9-4-9"
         offset="1"
         style="stop-color:#ffffff;stop-opacity:1" />
    </linearGradient>
    <linearGradient
       inkscape:collect="always"
       xlink:href="#linearGradient4139-2-89-2-2"
       id="linearGradient4109-1-6-5-6"
       x1="248.59393"
       y1="716.22528"
       x2="341.07355"
       y2="595.99622"
       gradientUnits="userSpaceOnUse"
       gradientTransform="matrix(-0.19024203,0.52180953,-0.51903283,-0.14290417,497.82898,68.084355)" />
    <linearGradient
       id="linearGradient4139-2-89-2-2">
      <stop
         id="stop4141-5-6-3-6"
         offset="0"
         style="stop-color:#dac4a2;stop-opacity:1" />
      <stop
         style="stop-color:#d7d340;stop-opacity:1"
         offset="0.08109644"
         id="stop4143-0-1-9-9" />
      <stop
         style="stop-color:#8b6000;stop-opacity:1"
         offset="0.18144664"
         id="stop4145-3-5-7-5" />
      <stop
         style="stop-color:#8f5300;stop-opacity:1"
         offset="0.32942024"
         id="stop4147-3-9-6-3" />
      <stop
         id="stop4149-0-3-7-5"
         offset="1"
         style="stop-color:#ffffff;stop-opacity:1" />
    </linearGradient>
    <linearGradient
       y2="627.97339"
       x2="478.58578"
       y1="544.66504"
       x1="372.34573"
       gradientTransform="matrix(0.21139386,0.8520993,0.74210254,-0.17665571,-332.18633,-17.378873)"
       gradientUnits="userSpaceOnUse"
       id="linearGradient3876-7"
       xlink:href="#linearGradient4151-9-06-0-2"
       inkscape:collect="always" />
    <linearGradient
       id="linearGradient4151-9-06-0-2">
      <stop
         style="stop-color:#ffffff;stop-opacity:1"
         offset="0"
         id="stop4153-0-8-5-1" />
      <stop
         id="stop4163-0-3-4-2"
         offset="0.27567106"
         style="stop-color:#000000;stop-opacity:0.8745098;" />
      <stop
         id="stop4161-9-1-3-6"
         offset="0.43787378"
         style="stop-color:#ffffff;stop-opacity:1" />
      <stop
         id="stop4159-5-8-6-4"
         offset="0.53069574"
         style="stop-color:#000000;stop-opacity:0.49803922;" />
      <stop
         style="stop-color:#000000;stop-opacity:0;"
         offset="1"
         id="stop4155-2-5-9-3" />
    </linearGradient>
    <linearGradient
       y2="627.97339"
       x2="478.58578"
       y1="544.66504"
       x1="372.34573"
       gradientTransform="matrix(-0.21139386,0.8520993,-0.74210254,-0.17665571,653.05931,-3.8784406)"
       gradientUnits="userSpaceOnUse"
       id="linearGradient4068"
       xlink:href="#linearGradient4151-9-06-0-2"
       inkscape:collect="always" />
    <linearGradient
       inkscape:collect="always"
       xlink:href="#linearGradient4127-3-8-5-1"
       id="linearGradient4125-2-3-1-1"
       x1="322.32452"
       y1="621.33813"
       x2="130.00607"
       y2="801.20844"
       gradientUnits="userSpaceOnUse"
       gradientTransform="matrix(0.17589739,0.69876745,0.61749142,-0.14486722,-255.20878,21.278219)" />
    <linearGradient
       id="linearGradient4127-3-8-5-1">
      <stop
         id="stop4129-7-2-6-2"
         offset="0"
         style="stop-color:#dac4a2;stop-opacity:1" />
      <stop
         style="stop-color:#d7d340;stop-opacity:1"
         offset="0.06794253"
         id="stop4131-1-6-0-3" />
      <stop
         style="stop-color:#8b6000;stop-opacity:1"
         offset="0.16901194"
         id="stop4133-3-9-1-0" />
      <stop
         style="stop-color:#8f5300;stop-opacity:1"
         offset="0.58954036"
         id="stop4135-3-88-9-6" />
      <stop
         id="stop4137-4-9-4-0"
         offset="1"
         style="stop-color:#ffffff;stop-opacity:1" />
    </linearGradient>
    <linearGradient
       inkscape:collect="always"
       xlink:href="#linearGradient4139-2-89-2-6"
       id="linearGradient4109-1-6-5-7"
       x1="248.59393"
       y1="716.22528"
       x2="341.07355"
       y2="595.99622"
       gradientUnits="userSpaceOnUse"
       gradientTransform="matrix(0.19024203,0.52180953,0.51903283,-0.14290417,-190.01426,69.691739)" />
    <linearGradient
       id="linearGradient4139-2-89-2-6">
      <stop
         id="stop4141-5-6-3-0"
         offset="0"
         style="stop-color:#dac4a2;stop-opacity:1" />
      <stop
         style="stop-color:#d7d340;stop-opacity:1"
         offset="0.08109644"
         id="stop4143-0-1-9-4" />
      <stop
         style="stop-color:#8b6000;stop-opacity:1"
         offset="0.18144664"
         id="stop4145-3-5-7-0" />
      <stop
         style="stop-color:#8f5300;stop-opacity:1"
         offset="0.32942024"
         id="stop4147-3-9-6-2" />
      <stop
         id="stop4149-0-3-7-3"
         offset="1"
         style="stop-color:#ffffff;stop-opacity:1" />
    </linearGradient>
    <linearGradient
       y2="627.97339"
       x2="478.58578"
       y1="544.66504"
       x1="372.34573"
       gradientTransform="matrix(0.21139386,0.8520993,0.74210254,-0.17665571,-332.18633,-17.378873)"
       gradientUnits="userSpaceOnUse"
       id="linearGradient3876-4"
       xlink:href="#linearGradient4151-9-06-0-8"
       inkscape:collect="always" />
    <linearGradient
       id="linearGradient4151-9-06-0-8">
      <stop
         style="stop-color:#ffffff;stop-opacity:1"
         offset="0"
         id="stop4153-0-8-5-7" />
      <stop
         id="stop4163-0-3-4-5"
         offset="0.27567106"
         style="stop-color:#000000;stop-opacity:0.8745098;" />
      <stop
         id="stop4161-9-1-3-7"
         offset="0.43787378"
         style="stop-color:#ffffff;stop-opacity:1" />
      <stop
         id="stop4159-5-8-6-5"
         offset="0.53069574"
         style="stop-color:#000000;stop-opacity:0.49803922;" />
      <stop
         style="stop-color:#000000;stop-opacity:0;"
         offset="1"
         id="stop4155-2-5-9-5" />
    </linearGradient>
    <linearGradient
       y2="627.97339"
       x2="478.58578"
       y1="544.66504"
       x1="372.34573"
       gradientTransform="matrix(0.21139386,0.8520993,0.74210254,-0.17665571,-345.24458,-2.271051)"
       gradientUnits="userSpaceOnUse"
       id="linearGradient4068-0"
       xlink:href="#linearGradient4151-9-06-0-8"
       inkscape:collect="always" />
    <linearGradient
       inkscape:collect="always"
       xlink:href="#linearGradient5447-8"
       id="linearGradient5445-6"
       x1="136.99225"
       y1="118.93986"
       x2="197.1978"
       y2="221.04318"
       gradientUnits="userSpaceOnUse" />
    <linearGradient
       id="linearGradient5447-8">
      <stop
         id="stop5449-7"
         offset="0"
         style="stop-color:#dac4a2;stop-opacity:1" />
      <stop
         style="stop-color:#d7d340;stop-opacity:1"
         offset="0.16607259"
         id="stop5451-5" />
      <stop
         style="stop-color:#8b6000;stop-opacity:1"
         offset="0.44290295"
         id="stop5453-4" />
      <stop
         style="stop-color:#8f5300;stop-opacity:1"
         offset="0.64122403"
         id="stop5455-9" />
      <stop
         id="stop5457-1"
         offset="1"
         style="stop-color:#ffffff;stop-opacity:1" />
    </linearGradient>
    <filter
       inkscape:collect="always"
       id="filter5471"
       color-interpolation-filters="sRGB">
      <feGaussianBlur
         inkscape:collect="always"
         stdDeviation="0.85273058"
         id="feGaussianBlur5473" />
    </filter>
    <filter
       inkscape:collect="always"
       id="filter4967"
       color-interpolation-filters="sRGB">
      <feGaussianBlur
         inkscape:collect="always"
         stdDeviation="0.80300695"
         id="feGaussianBlur4969" />
    </filter>
    <filter
       color-interpolation-filters="sRGB"
       inkscape:collect="always"
       id="filter3959-7-9">
      <feGaussianBlur
         inkscape:collect="always"
         stdDeviation="0.8026125"
         id="feGaussianBlur3961-5-66" />
    </filter>
    <linearGradient
       y2="479.78601"
       x2="244.78201"
       y1="414.32785"
       x1="197.74268"
       gradientUnits="userSpaceOnUse"
       id="linearGradient4876-2"
       xlink:href="#linearGradient3813-7-7-3"
       inkscape:collect="always" />
    <linearGradient
       id="linearGradient3813-7-7-3">
      <stop
         id="stop3815-9-4-2"
         offset="0"
         style="stop-color:#00048a;stop-opacity:1" />
      <stop
         style="stop-color:#0000a6;stop-opacity:0.59259259"
         offset="0.18315989"
         id="stop3823-1-3-6" />
      <stop
         style="stop-color:#000073;stop-opacity:1"
         offset="0.50531948"
         id="stop3821-5-0-0" />
      <stop
         style="stop-color:#000000;stop-opacity:1"
         offset="0.85866433"
         id="stop3819-5-92-7" />
      <stop
         id="stop3817-72-4-4"
         offset="1"
         style="stop-color:#000000;stop-opacity:1" />
    </linearGradient>
    <linearGradient
       y2="479.78601"
       x2="244.78201"
       y1="414.32785"
       x1="197.74268"
       gradientUnits="userSpaceOnUse"
       id="linearGradient4878-6"
       xlink:href="#linearGradient3791-81-7-3"
       inkscape:collect="always" />
    <linearGradient
       id="linearGradient3791-81-7-3">
      <stop
         style="stop-color:#dac4a2;stop-opacity:1"
         offset="0"
         id="stop3793-1-9-5" />
      <stop
         id="stop3803-5-6-9"
         offset="0.08314955"
         style="stop-color:#d7d340;stop-opacity:1" />
      <stop
         id="stop3801-5-3-1"
         offset="0.34274197"
         style="stop-color:#8b6000;stop-opacity:1" />
      <stop
         id="stop3799-8-8-5"
         offset="0.71951431"
         style="stop-color:#8f5300;stop-opacity:1" />
      <stop
         style="stop-color:#000000;stop-opacity:1"
         offset="1"
         id="stop3795-20-8-0" />
    </linearGradient>
    <linearGradient
       y2="479.78601"
       x2="244.78201"
       y1="414.32785"
       x1="197.74268"
       gradientUnits="userSpaceOnUse"
       id="linearGradient4401"
       xlink:href="#linearGradient3813-7-7-3"
       inkscape:collect="always" />
    <linearGradient
       y2="479.78601"
       x2="244.78201"
       y1="414.32785"
       x1="197.74268"
       gradientUnits="userSpaceOnUse"
       id="linearGradient4403"
       xlink:href="#linearGradient3791-81-7-3"
       inkscape:collect="always" />
    <linearGradient
       inkscape:collect="always"
       xlink:href="#linearGradient3870-0"
       id="linearGradient3868-0"
       x1="153.22443"
       y1="79.338234"
       x2="151.0988"
       y2="360.64542"
       gradientUnits="userSpaceOnUse" />
    <linearGradient
       id="linearGradient3870-0">
      <stop
         style="stop-color:#00048a;stop-opacity:1"
         offset="0"
         id="stop3872-5" />
      <stop
         id="stop3874-7"
         offset="0.18315989"
         style="stop-color:#0000a6;stop-opacity:0.59259259" />
      <stop
         id="stop3876-5"
         offset="0.50531948"
         style="stop-color:#000073;stop-opacity:1" />
      <stop
         id="stop3878-5"
         offset="0.79400629"
         style="stop-color:#000000;stop-opacity:1" />
      <stop
         style="stop-color:#000000;stop-opacity:1"
         offset="1"
         id="stop3880-7" />
    </linearGradient>
    <filter
       color-interpolation-filters="sRGB"
       inkscape:collect="always"
       id="filter4286-5">
      <feGaussianBlur
         inkscape:collect="always"
         stdDeviation="0.91922096"
         id="feGaussianBlur4288-8" />
    </filter>
  </defs>
  <sodipodi:namedview
     pagecolor="#ffffff"
     bordercolor="#666666"
     borderopacity="1"
     objecttolerance="10"
     gridtolerance="10"
     guidetolerance="10"
     inkscape:pageopacity="0"
     inkscape:pageshadow="2"
     inkscape:window-width="1366"
     inkscape:window-height="711"
     id="namedview4"
     showgrid="false"
     inkscape:zoom="0.87982113"
     inkscape:cx="129.15286"
     inkscape:cy="161.83824"
     inkscape:window-x="0"
     inkscape:window-y="26"
     inkscape:window-maximized="1"
     inkscape:current-layer="svg2" />
  <path
     style="fill:url(#linearGradient4068-0);fill-opacity:1;stroke:#000000;stroke-width:2;stroke-linecap:butt;stroke-linejoin:miter;stroke-miterlimit:4;stroke-opacity:1;stroke-dasharray:none"
     d="m 53.027467,352.24843 c 0.65611,-22.00411 13.70487,-46.95845 22.8978,-70.99475 30.645153,-47.33901 81.462643,-89.4738 91.159993,-142.21698 11.68702,0.54998 26.76053,-10.48991 33.83763,-21.94912 l 15.94458,12.31351 c -10.41536,14.46056 -13.25818,35.47505 -9.90748,46.65855 -38.16869,28.40783 -61.98499,83.54021 -95.80695,129.46933 -15.63876,14.29933 -32.005593,38.5086 -58.125503,46.71936 z"
     id="path2987-7-5-1"
     inkscape:connector-curvature="0"
     sodipodi:nodetypes="ccccccccc"
     inkscape:export-filename="/home/boss/git/slayerButtonUp.png"
     inkscape:export-xdpi="89.800003"
     inkscape:export-ydpi="89.800003" />
  <path
     style="font-size:medium;font-style:normal;font-variant:normal;font-weight:normal;font-stretch:normal;text-indent:0;text-align:start;text-decoration:none;line-height:normal;letter-spacing:normal;word-spacing:normal;text-transform:none;direction:ltr;block-progression:tb;writing-mode:lr-tb;text-anchor:start;baseline-shift:baseline;color:#000000;fill:#000000;fill-opacity:1;stroke:none;stroke-width:2;marker:none;visibility:visible;display:inline;overflow:visible;enable-background:accumulate;font-family:Sans;-inkscape-font-specification:Sans"
     d="M 208.55501,122.05272 52.311777,352.54685 54.777967,351.12506 210.14981,123.17417 z"
     id="path3001"
     inkscape:connector-curvature="0"
     sodipodi:nodetypes="ccccc"
     inkscape:export-filename="/home/boss/git/slayerButtonUp.png"
     inkscape:export-xdpi="89.800003"
     inkscape:export-ydpi="89.800003" />
  <path
     style="fill:url(#linearGradient4068);fill-opacity:1;stroke:#000000;stroke-width:2;stroke-linecap:butt;stroke-linejoin:miter;stroke-miterlimit:4;stroke-opacity:1;stroke-dasharray:none"
     d="m 254.78725,350.64104 c -0.65611,-22.00411 -13.70486,-46.95845 -22.89779,-70.99475 -30.64516,-47.33901 -81.46264,-89.4738 -91.15999,-142.21698 -11.68702,0.54998 -26.76053,-10.48991 -33.83763,-21.94912 L 90.947262,127.7937 c 10.415358,14.46056 13.258178,35.47505 9.907478,46.65855 38.16869,28.40783 63.59236,84.34391 97.41432,130.27303 15.63876,14.29933 30.39822,37.7049 56.51813,45.91566 z"
     id="path2987-7-5-1-7"
     inkscape:connector-curvature="0"
     sodipodi:nodetypes="ccccccccc"
     inkscape:export-filename="/home/boss/git/slayerButtonUp.png"
     inkscape:export-xdpi="89.800003"
     inkscape:export-ydpi="89.800003" />
  <path
     style="font-size:medium;font-style:normal;font-variant:normal;font-weight:normal;font-stretch:normal;text-indent:0;text-align:start;text-decoration:none;line-height:normal;letter-spacing:normal;word-spacing:normal;text-transform:none;direction:ltr;block-progression:tb;writing-mode:lr-tb;text-anchor:start;baseline-shift:baseline;color:#000000;fill:#000000;fill-opacity:1;stroke:none;stroke-width:2;marker:none;visibility:visible;display:inline;overflow:visible;enable-background:accumulate;font-family:Sans;-inkscape-font-specification:Sans"
     d="M 99.259722,120.44533 255.50294,350.93946 253.03675,349.51767 97.664922,121.56678 z"
     id="path3001-3"
     inkscape:connector-curvature="0"
     sodipodi:nodetypes="ccccc"
     inkscape:export-filename="/home/boss/git/slayerButtonUp.png"
     inkscape:export-xdpi="89.800003"
     inkscape:export-ydpi="89.800003" />
  <path
     style="fill:url(#linearGradient3848);stroke:#000000;stroke-width:2;stroke-linecap:butt;stroke-linejoin:miter;stroke-opacity:1;fill-opacity:1;stroke-miterlimit:4;stroke-dasharray:none"
     d="M 152.87198,339.19218 C 136.31004,291.16806 47.672258,325.61135 57.113882,132.6161 c 57.086998,3.85352 72.501338,-13.57262 95.758098,-26.99412 24.94364,18.93631 54.13057,31.81077 94.90566,28.13072 4.38143,196.55814 -73.09476,153.93669 -94.90566,205.43948 z"
     id="path2987"
     inkscape:connector-curvature="0"
     sodipodi:nodetypes="ccccc"
     inkscape:export-filename="/home/boss/git/slayerButtonUp.png"
     inkscape:export-xdpi="89.800003"
     inkscape:export-ydpi="89.800003" />
  <path
     style="fill:url(#linearGradient3868);stroke:#000000;stroke-width:1;stroke-linecap:butt;stroke-linejoin:miter;stroke-opacity:1;fill-opacity:1;stroke-miterlimit:4;stroke-dasharray:none"
     d="m 68.479828,146.25524 c 44.148612,1.04859 65.314662,-12.09794 84.108002,-26.70997 20.18087,15.58217 42.20286,29.58624 83.25557,27.27827 -1.42814,160.97725 -61.45428,138.14827 -83.25557,173.04654 C 132.96836,287.11869 68.882311,305.10291 68.479828,146.25524 z"
     id="path2989"
     inkscape:connector-curvature="0"
     sodipodi:nodetypes="ccccc"
     inkscape:export-filename="/home/boss/git/slayerButtonUp.png"
     inkscape:export-xdpi="89.800003"
     inkscape:export-ydpi="89.800003" />
  <path
     style="fill:url(#linearGradient4125-2-3-1-3);fill-opacity:1;stroke:#000000;stroke-width:2;stroke-linecap:butt;stroke-linejoin:miter;stroke-miterlimit:4;stroke-opacity:1;stroke-dasharray:none"
     d="m 84.003462,120.64991 1.88023,-9.04372 c -9.968,-13.413291 -17.20565,-24.553865 -26.28932,-37.759662 -6.74585,-4.666754 -7.73259,-7.982325 -9.03024,-11.370871 -0.73754,-3.467895 -1.96287,-4.997249 -1.46305,-13.380626 5.36301,1.06589 10.20472,3.01975 13.83886,7.031739 3.35153,2.76422 4.10225,5.867248 4.41721,9.026951 10.15537,13.203889 18.53031,26.486988 27.49499,40.522169 l 10.931688,1.25228 z"
     id="path2993-3-1-7-1"
     inkscape:connector-curvature="0"
     sodipodi:nodetypes="cccccccccc"
     inkscape:export-filename="/home/boss/git/slayerButtonUp.png"
     inkscape:export-xdpi="89.800003"
     inkscape:export-ydpi="89.800003" />
  <path
     style="fill:url(#linearGradient4109-1-6-5-6);fill-opacity:1;stroke:#000000;stroke-width:2;stroke-linecap:butt;stroke-linejoin:miter;stroke-miterlimit:4;stroke-opacity:1;stroke-dasharray:none"
     d="m 139.30295,113.08851 -11.74816,8.30218 c -2.86678,-2.63346 -2.70031,-6.88724 -12.58409,-5.77212 -12.99241,5.95994 -22.151888,12.97518 -30.753898,20.14391 -4.42429,6.95437 -2.85535,11.03833 0.26593,14.37882 l -10.76095,8.11252 c -6.90905,-8.46092 -5.35982,-18.16911 -0.68481,-28.33831 12.59629,-12.28865 26.73511,-18.46683 40.221918,-27.22795 9.94976,-1.27497 19.42556,-0.77794 26.04406,10.40095 z"
     id="path2989-8-8-5-7"
     inkscape:connector-curvature="0"
     sodipodi:nodetypes="ccccccccc"
     inkscape:export-filename="/home/boss/git/slayerButtonUp.png"
     inkscape:export-xdpi="89.800003"
     inkscape:export-ydpi="89.800003" />
  <path
     style="fill:url(#linearGradient4109-1-6-5-7);fill-opacity:1;stroke:#000000;stroke-width:2;stroke-linecap:butt;stroke-linejoin:miter;stroke-miterlimit:4;stroke-opacity:1;stroke-dasharray:none"
     d="m 168.51178,114.6959 11.74816,8.30218 c 2.86678,-2.63346 2.70031,-6.88724 12.58409,-5.77212 12.99241,5.95994 22.15189,12.97518 30.7539,20.14391 4.42429,6.95437 2.85535,11.03833 -0.26593,14.37882 l 10.76095,8.11252 c 6.90905,-8.46092 5.35982,-18.16911 0.68481,-28.33831 -12.59629,-12.28865 -26.73511,-18.46683 -40.22192,-27.22795 -9.94976,-1.27497 -19.42556,-0.77794 -26.04406,10.40095 z"
     id="path2989-8-8-5"
     inkscape:connector-curvature="0"
     sodipodi:nodetypes="ccccccccc"
     inkscape:export-filename="/home/boss/git/slayerButtonUp.png"
     inkscape:export-xdpi="89.800003"
     inkscape:export-ydpi="89.800003" />
  <path
     style="fill:url(#linearGradient4125-2-3-1-1);fill-opacity:1;stroke:#000000;stroke-width:2;stroke-linecap:butt;stroke-linejoin:miter;stroke-miterlimit:4;stroke-opacity:1;stroke-dasharray:none"
     d="m 223.81127,122.2573 -1.88023,-9.04372 c 9.968,-13.413291 17.20565,-24.553871 26.28932,-37.759661 6.74585,-4.66676 7.73259,-7.98233 9.03024,-11.37087 0.73754,-3.4679 1.96287,-4.99725 1.46305,-13.38063 -5.36301,1.06589 -10.20472,3.01975 -13.83886,7.03174 -3.35153,2.76422 -4.10225,5.86725 -4.41721,9.02695 -10.15537,13.20389 -18.53031,26.48699 -27.49499,40.522161 l -10.93169,1.25229 z"
     id="path2993-3-1-7"
     inkscape:connector-curvature="0"
     sodipodi:nodetypes="cccccccccc"
     inkscape:export-filename="/home/boss/git/slayerButtonUp.png"
     inkscape:export-xdpi="89.800003"
     inkscape:export-ydpi="89.800003" />
  <path
     sodipodi:type="star"
     style="fill:url(#linearGradient5445-6);fill-opacity:1;stroke:#000000;stroke-width:3.00017118;stroke-linecap:round;stroke-linejoin:bevel;stroke-miterlimit:4;stroke-opacity:1;stroke-dasharray:none;filter:url(#filter5471)"
     id="path5409"
     sodipodi:sides="3"
     sodipodi:cx="163.76768"
     sodipodi:cy="178.93457"
     sodipodi:r1="52.712383"
     sodipodi:r2="26.657566"
     sodipodi:arg1="-2.1150768"
     sodipodi:arg2="-1.1997238"
     inkscape:flatsided="false"
     inkscape:rounded="0"
     inkscape:randomized="0"
     d="m 136.47307,133.83912 36.96105,20.25223 43.03468,23.75312 -36.01947,21.88309 -42.08814,25.39256 -0.94159,-42.13532 z"
     inkscape:transform-center-x="-12.887969"
     inkscape:transform-center-y="0.21628969"
     transform="matrix(0.991965,0.01258688,-0.01241926,1.0053532,-7.643078,35.368449)"
     inkscape:export-filename="/home/boss/git/slayerButtonUp.png"
     inkscape:export-xdpi="89.800003"
     inkscape:export-ydpi="89.800003" />
  <path
     sodipodi:type="star"
     style="fill:none;stroke:#000000;stroke-width:1;stroke-linecap:round;stroke-linejoin:bevel;stroke-miterlimit:4;stroke-opacity:1;stroke-dasharray:none"
     id="path4339"
     sodipodi:sides="3"
     sodipodi:cx="-233.00191"
     sodipodi:cy="215.87166"
     sodipodi:r1="4.0980504"
     sodipodi:r2="2.0724551"
     sodipodi:arg1="-0.98279372"
     sodipodi:arg2="0.064403828"
     inkscape:flatsided="false"
     inkscape:rounded="0"
     inkscape:randomized="0"
     d="m -230.72872,212.46187 -0.20503,3.54317 -0.25179,3.54015 -2.96596,-1.94914 -2.93996,-1.98814 3.17099,-1.59402 z"
     inkscape:transform-center-x="0.90818245"
     inkscape:transform-center-y="0.13187386" />
</svg>
